{"type": "HostToHostIntent",
 "id": "0x12",
 "key": "0x12",
 "appId": "org.onosproject.cli",
 "priority": 100,
 "selector": {"criteria":[]},
 "treatment":{"immediate":[], "deferred":[], "transition": "None", "cleared": "false", "metadata": "null"},
 "constraints":[]}],
 "resources" :["00:00:00:00:00:01/-1", "00:00:00:00:00:02/-1"],
 "one":"00:00:00:00:00:01/-1",
 "two":"00:00:00:00:00:02/-1"}
